<?xml version="1.0" encoding="iso-8859-1"?>
<!-- Generator: Adobe Illustrator 19.0.0, SVG Export Plug-In . SVG Version: 6.00 Build 0)  -->
<svg xmlns="http://www.w3.org/2000/svg" xmlns:xlink="http://www.w3.org/1999/xlink" version="1.1" id="Capa_1" x="0px" y="0px" viewBox="0 0 462.766 462.766" style="enable-background:new 0 0 462.766 462.766;" xml:space="preserve" width="512px" height="512px">
<g>
	<g>
		<path d="M370.471,0H99.933c-17.811,0-32.3,14.49-32.3,32.3v196.005c0,17.81,14.489,32.299,32.3,32.299h99.679    c-3.067,11.921-12.755,39.973-38.836,57.402c-1.803,1.205-2.605,3.448-1.975,5.523c0.629,2.075,2.542,3.494,4.711,3.494h143.381    c2.168,0,4.082-1.419,4.711-3.494c0.63-2.075-0.172-4.318-1.975-5.523c-25.99-17.368-35.729-45.463-38.823-57.402h99.665    c17.811,0,32.3-14.489,32.3-32.299V32.3C402.771,14.49,388.281,0,370.471,0z M292.699,317.177H177.706    c22.024-20.261,29.774-46.451,32.06-56.573h50.873C262.924,270.726,270.674,296.915,292.699,317.177z M392.924,228.305    c0,12.381-10.073,22.453-22.454,22.453H264.687h-58.969H99.933c-12.381,0-22.454-10.073-22.454-22.453v-18.773h315.445V228.305z     M392.924,199.686H77.479V32.3c0-12.381,10.073-22.454,22.454-22.454h270.538c12.381,0,22.454,10.073,22.454,22.454V199.686z" fill="#FFFFFF"/>
	</g>
</g>
<g>
	<g>
		<path d="M401.937,455.102l-46.871-69.914l28.648-34.562c0.001-0.002,0.003-0.003,0.004-0.004c0.001-0.001,0.001-0.002,0.002-0.003    l9.457-11.409c3.898-4.703,6.088-10.405,6.166-16.055c0.084-6.049-2.219-11.327-6.484-14.862l-12.537-10.393    c-8.48-7.029-22.136-4.595-30.44,5.423l-9.458,11.411c0,0,0,0,0,0s0,0,0,0l-30.39,36.663H132.98c-1.641,0-3.175,0.818-4.089,2.182    L60.829,455.102c-1.013,1.51-1.11,3.455-0.254,5.059s2.525,2.606,4.343,2.606h332.929c1.818,0,3.487-1.002,4.343-2.606    S402.95,456.612,401.937,455.102z M357.463,309.607c4.758-5.74,12.351-7.629,16.576-4.125l12.538,10.392    c1.926,1.596,2.963,4.134,2.922,7.146c-0.047,3.41-1.433,6.929-3.902,9.907l-6.317,7.621l-28.133-23.32L357.463,309.607z     M344.863,324.808l28.133,23.32l-47.106,56.829l-26.519,3.363l-1.613-26.683L344.863,324.808z M74.147,452.92l61.461-91.676    h166.265l-12.937,15.607c-0.797,0.962-1.199,2.192-1.124,3.439l1.855,30.662c-33.367,16.52-54.201,2.442-72.637-10.026    c-8.746-5.915-17.007-11.501-25.697-12.977c-36.512-6.204-52.904,23.279-53.065,23.577c-1.292,2.392-0.4,5.379,1.991,6.671    c2.391,1.29,5.379,0.401,6.672-1.991c0.128-0.236,13.112-23.587,42.754-18.55c6.588,1.119,13.651,5.896,21.829,11.426    c12.658,8.56,28.404,19.213,49.263,19.211c10.457-0.001,22.206-2.691,35.485-9.652l32.797-4.159    c1.24-0.157,2.373-0.78,3.171-1.742l16.283-19.644l40.107,59.826H74.147z" fill="#FFFFFF"/>
	</g>
</g>
<g>
	<g>
		<path d="M199.604,86.967h-65.739c-2.719,0-4.923,2.204-4.923,4.923v65.739c0,2.719,2.204,4.923,4.923,4.923h65.739    c2.719,0,4.923-2.204,4.923-4.923V91.89C204.527,89.171,202.324,86.967,199.604,86.967z M194.681,152.706h-55.893V96.813h55.893    V152.706z" fill="#FFFFFF"/>
	</g>
</g>
<g>
	<g>
		<path d="M301.559,42.363c-0.762-1.839-2.557-3.039-4.548-3.039h-66.193c-2.719,0-4.923,2.204-4.923,4.923v66.194    c0,1.991,1.199,3.787,3.039,4.549c0.609,0.252,1.248,0.375,1.883,0.375c1.281,0,2.54-0.5,3.482-1.442l66.193-66.194    C301.901,46.32,302.322,44.203,301.559,42.363z M235.741,98.555V49.17h49.385L235.741,98.555z" fill="#FFFFFF"/>
	</g>
</g>
<g>
	<g>
		<path d="M300.226,90.939c-22.737,0-41.235,18.498-41.235,41.235c0,22.737,18.498,41.236,41.235,41.236    c22.737,0,41.236-18.498,41.236-41.236C341.462,109.437,322.964,90.939,300.226,90.939z M300.226,163.563    c-17.308,0-31.388-14.081-31.388-31.389c0-17.308,14.081-31.389,31.388-31.389c17.309,0,31.389,14.081,31.389,31.389    C331.616,149.482,317.535,163.563,300.226,163.563z" fill="#FFFFFF"/>
	</g>
</g>
<g>
</g>
<g>
</g>
<g>
</g>
<g>
</g>
<g>
</g>
<g>
</g>
<g>
</g>
<g>
</g>
<g>
</g>
<g>
</g>
<g>
</g>
<g>
</g>
<g>
</g>
<g>
</g>
<g>
</g>
</svg>
